<svg width="102" height="32" viewBox="0 0 102 32" fill="none" xmlns="http://www.w3.org/2000/svg">
<path d="M101.25 1.26953V30.2945H96.8544L87.1932 6.61842H87.1518V30.2945H84.498V1.26953H87.8981L98.4715 26.9359H98.5544V1.26953H101.25Z" fill="#285884"/>
<path d="M62.9645 21.6705C62.9645 22.8315 62.7571 23.9372 62.3425 24.9877C61.9278 26.0381 61.3612 26.9503 60.6425 27.7243C59.9237 28.4983 59.0806 29.1203 58.1131 29.5902C57.1456 30.0325 56.0952 30.2536 54.9619 30.2536C53.8838 30.2536 52.8195 30.1154 51.7691 29.839C50.7187 29.5349 49.7788 29.2032 48.9495 28.8439C47.982 28.4292 47.0698 27.9593 46.2129 27.4341L47.208 24.6974C48.1755 25.195 49.1154 25.6235 50.0276 25.9828C50.8292 26.3145 51.6724 26.6186 52.5569 26.895C53.4415 27.1438 54.2293 27.2682 54.9204 27.2682C55.6391 27.2682 56.3164 27.13 56.9521 26.8536C57.5879 26.5495 58.127 26.1487 58.5692 25.6511C59.0392 25.1535 59.3985 24.573 59.6473 23.9096C59.9237 23.2462 60.062 22.5275 60.062 21.7535C60.062 20.9795 59.8823 20.3299 59.5229 19.8046C59.1636 19.2794 58.6936 18.851 58.1131 18.5193C57.5603 18.1599 56.9383 17.8835 56.2472 17.69C55.5838 17.4965 54.9342 17.3444 54.2984 17.2339C53.248 17.068 52.2667 16.7778 51.3545 16.3631C50.4422 15.9208 49.6406 15.368 48.9495 14.7045C48.2861 14.0411 47.7471 13.2671 47.3324 12.3825C46.9454 11.4703 46.7519 10.4475 46.7519 9.31418C46.7519 8.15318 46.9592 7.06129 47.3739 6.0385C47.7885 5.01572 48.3552 4.13115 49.0739 3.38479C49.7926 2.61079 50.6219 2.00265 51.5618 1.56036C52.5293 1.09043 53.5521 0.855469 54.6301 0.855469C55.2936 0.855469 55.9846 0.938397 56.7034 1.10425C57.4221 1.24247 58.0993 1.40832 58.7351 1.60183C59.4538 1.82297 60.1725 2.07175 60.8912 2.34818L59.979 5.16775C59.3432 4.91897 58.7075 4.69783 58.0717 4.50432C57.5188 4.33847 56.9245 4.18643 56.2887 4.04822C55.6806 3.88236 55.1001 3.79943 54.5472 3.79943C53.8561 3.79943 53.2065 3.95147 52.5984 4.25554C51.9902 4.55961 51.465 4.96043 51.0227 5.458C50.5805 5.95557 50.2349 6.53607 49.9861 7.1995C49.7374 7.83529 49.613 8.49872 49.613 9.18979C49.613 9.99143 49.7788 10.6963 50.1105 11.3045C50.4422 11.885 50.8569 12.3825 51.3545 12.7972C51.8797 13.2118 52.4464 13.5435 53.0545 13.7923C53.6626 14.0411 54.2431 14.2208 54.796 14.3314C55.9294 14.5249 56.9936 14.8013 57.9887 15.1606C58.9839 15.52 59.8408 15.9899 60.5595 16.5704C61.3059 17.1509 61.8864 17.8558 62.301 18.6851C62.7433 19.5144 62.9645 20.5095 62.9645 21.6705Z" fill="#285884"/>
<path d="M43.5318 1.26953V30.2945H39.1366L29.4755 6.61842H29.434V30.2945H26.7803V1.26953H30.1803L40.7537 26.9359H40.8367V1.26953H43.5318Z" fill="#285884"/>
<path d="M19.8643 1.26953H22.5594V30.2945H19.8643V1.26953Z" fill="#285884"/>
<path d="M17.8747 1.26953L11.199 30.2945H7.25989L0.75 1.26953H3.56957L9.25018 27.0603H9.3331C9.38839 26.7839 9.51278 26.2034 9.70628 25.3188C9.89978 24.4066 10.1347 23.3285 10.4112 22.0846C10.6876 20.813 10.9917 19.4171 11.3234 17.8967C11.6827 16.3764 12.0283 14.8422 12.36 13.2942C13.1616 9.7006 14.0462 5.69239 15.0137 1.26953H17.8747Z" fill="#285884"/>
<path d="M65.957 0C65.957 0 68.481 0 70.3739 0C72.2669 0 73.8894 0.255399 75.2415 0.766198C76.6237 1.24695 77.6904 1.87793 78.4415 2.65916C79.6434 3.95117 80.4547 5.51361 80.8753 7.34648C81.296 9.1493 81.5063 11.2225 81.5063 13.5662V22.7831V32H77.0894C75.0763 32 73.3486 31.7296 71.9063 31.1887C70.4941 30.6178 69.4425 29.8967 68.7514 29.0254C67.6397 27.7033 66.8885 26.1709 66.4979 24.4282C66.1373 22.6854 65.957 20.6873 65.957 18.4338V0ZM69.9683 18.4338C69.9683 20.6873 70.1336 22.5502 70.4641 24.0225C70.7946 25.4648 71.2603 26.5315 71.8613 27.2225C72.5523 28.0638 73.2885 28.6347 74.0697 28.9352C74.881 29.2056 75.8875 29.3408 77.0894 29.3408H77.4951V13.5662C77.4951 11.3427 77.3448 9.49484 77.0444 8.02254C76.7439 6.55023 76.2181 5.3784 75.4669 4.50704C74.3552 3.27512 72.6575 2.65916 70.3739 2.65916H69.9683V18.4338Z" fill="#11ABB0"/>
</svg>
